<?xml version="1.0" encoding="utf-8"?>
<!-- Generator: Adobe Illustrator 19.0.0, SVG Export Plug-In . SVG Version: 6.00 Build 0)  -->
<svg version="1.1" id="Layer_1" xmlns="http://www.w3.org/2000/svg" xmlns:xlink="http://www.w3.org/1999/xlink" x="0px" y="0px"
	 width="50px" height="50px" viewBox="0 0 50 50" style="enable-background:new 0 0 50 50;" xml:space="preserve">
<style type="text/css">
	.st0{fill:#454545;}
	.st1{fill:#FFFFFF;}
</style>
<circle id="XMLID_40_" class="st0" cx="25" cy="24.9" r="24.9"/>
<rect id="XMLID_43_" x="14.8" y="18.2" class="st1" width="20.5" height="1.5"/>
<rect id="XMLID_42_" x="14.8" y="24.4" class="st1" width="20.5" height="1.5"/>
<rect id="XMLID_41_" x="14.8" y="30.7" class="st1" width="20.5" height="1.5"/>
</svg>
